…
long_study
```

    ## # A tibble: 160 × 3
    ##    file_name  week data_value
    ##    <chr>     <int>      <dbl>
    ##  1 con_01        1       0.2 
    ##  2 con_01        2      -1.31
    ##  3 con_01        3       0.66
    ##  4 con_01        4       1.96
    ##  5 con_01        5       0.23
    ##  6 con_01        6       1.09
    ##  7 con_01        7       0.05
    ##  8 con_01        8       1.94
    ##  9 con_02        1       1.13
    ## 10 con_02        2      -0.88
    ## # … with 150 more rows
…
